Mini Project Informs Data Challenge
…
  arrange(desc(average_profit))

# Print the result
print(average_profit_vs_competitors)

# A tibble: 227 × 3
   sku                           average_profit average_number_competitors
   <fct>                                  <dbl>                      <dbl>
 1 Pocket Folders SKU 4                   19.0                       0.975
 2 Classification Folders SKU 18          16.9                       0    
 3 Pocket Folders SKU 5                   15.5                       2    
 4 Classification Folders SKU 19          15.4                       0    
 5 Tape SKU 8                             14.0                       0.881
 6 Classification Folders SKU 20          13.2                       0    
 7 Tape SKU 6                             10.3                       0    
 8 File Folders SKU 43                     9.75                      0    
 9 Misc School Supplies SKU 6              9.54                      3.05 
10 Tape SKU 7                              9.39                      0    
# ℹ 217 more rows
…
